…
``` r
use_these()
```

If something different is needed, ignore the above wrapper function. Instead, make individual calls to whichever package setup functions are required.

Getting info from the verse
---------------------------

A table of all SNAPverse packages can be obtained by:

``` r
sv_pkgs()
#> # A tibble: 25 x 3
#>    pkg       type      local
#>    <chr>     <chr>     <lgl>
#>  1 snapverse sector    TRUE 
#>  2 snaplite  sector    FALSE
#>  3 snapdata  sector    FALSE
#>  4 snapwebs  sector    FALSE
#>  5 snapstat  functions TRUE 
#>  6 snapplot  functions TRUE 
#>  7 snaplocs  functions TRUE 
#>  8 snapprep  functions TRUE 
#>  9 alfresco  functions TRUE 
#> 10 snapclim  data      TRUE 
#> # ... with 15 more rows
```
…
